Real-Time PCR Data Sets by Guescini et al. (2008) • guescini
…
Guescini et al. (2008) explored the effect of amplification inhibition on qPCR quantification. Two systems were devised to alter the amplification efficiency:

decreasing of the amplification mix used in the reaction

increasing of IgG (PCR inhibitor) concentration in the reaction

The raw fluorescence data associated with the decreasing of the amplification mix is provided as the data set amp_mix_perc; the data obtained with increasing concentrations of IgG is provided as IgG_inhibition.

Amplification mix percentage

The data set amp_mix_perc corresponds to a set of amplification runs where the MT-ND1 gene is amplified in reactions having the same initial amount of DNA but different amounts of SYBR Green I Master mix. A standard curve was performed over a wide range of input DNA (3.14 × 107 thru 3.14 × 101) in the presence of optimal amplification conditions (100% amplification mix), while the unknowns were run in the presence of the same starting DNA amounts but with amplification mix quantities ranging from 60% to 100%.

library(guescini)
amp_mix_perc
#> # A tibble: 21,000 × 12
#>    plate well  dye   target sample_type run   replicate amp_mix_perc   copies
#>    <fct> <fct> <fct> <fct>  <fct>       <fct> <fct>            <dbl>    <int>
#>  1 <NA>  <NA>  SYBR  MT-ND1 std         1     1                    1 31400000
#>  2 <NA>  <NA>  SYBR  MT-ND1 std         1     1                    1 31400000
#>  3 <NA>  <NA>  SYBR  MT-ND1 std         1     1                    1 31400000
#>  4 <NA>  <NA>  SYBR  MT-ND1 std         1     1                    1 31400000
#>  5 <NA>  <NA>  SYBR  MT-ND1 std         1     1                    1 31400000
#>  6 <NA>  <NA>  SYBR  MT-ND1 std         1     1                    1 31400000
#>  7 <NA>  <NA>  SYBR  MT-ND1 std         1     1                    1 31400000
#>  8 <NA>  <NA>  SYBR  MT-ND1 std         1     1                    1 31400000
#>  9 <NA>  <NA>  SYBR  MT-ND1 std         1     1                    1 31400000
#> 10 <NA>  <NA>  SYBR  MT-ND1 std         1     1                    1 31400000
#> # ℹ 20,990 more rows
#> # ℹ 3 more variables: dilution <int>, cycle <int>, fluor <dbl>
…
