…
### Amplification mix percentage

The data set `amp_mix_perc` corresponds to a set of amplification runs
where the MT-ND1 gene is amplified in reactions having the same initial
amount of DNA but different amounts of SYBR Green I Master mix. A
standard curve was performed over a wide range of input DNA
($3.14 \times 10^7\ \text{thru}\ 3.14 \times 10^1$) in the presence of
optimal amplification conditions (100% amplification mix), while the
unknowns were run in the presence of the same starting DNA amounts but
with amplification mix quantities ranging from 60% to 100%.

``` r
library(guescini)
amp_mix_perc
#> # A tibble: 21,000 × 12
#>    plate well  dye   target sample_…¹ run   repli…² amp_m…³ copies dilut…⁴ cycle
#>    <fct> <fct> <fct> <fct>  <fct>     <fct> <fct>     <dbl>  <int>   <int> <int>
#>  1 <NA>  <NA>  SYBR  MT-ND1 std       1     1             1 3.14e7       1     1
#>  2 <NA>  <NA>  SYBR  MT-ND1 std       1     1             1 3.14e7       1     2
#>  3 <NA>  <NA>  SYBR  MT-ND1 std       1     1             1 3.14e7       1     3
#>  4 <NA>  <NA>  SYBR  MT-ND1 std       1     1             1 3.14e7       1     4
#>  5 <NA>  <NA>  SYBR  MT-ND1 std       1     1             1 3.14e7       1     5
#>  6 <NA>  <NA>  SYBR  MT-ND1 std       1     1             1 3.14e7       1     6
#>  7 <NA>  <NA>  SYBR  MT-ND1 std       1     1             1 3.14e7       1     7
#>  8 <NA>  <NA>  SYBR  MT-ND1 std       1     1             1 3.14e7       1     8
#>  9 <NA>  <NA>  SYBR  MT-ND1 std       1     1             1 3.14e7       1     9
#> 10 <NA>  <NA>  SYBR  MT-ND1 std       1     1             1 3.14e7       1    10
#> # … with 20,990 more rows, 1 more variable: fluor <dbl>, and abbreviated
#> #   variable names ¹​sample_type, ²​replicate, ³​amp_mix_perc, ⁴​dilution
…
