Amplification mix percentage — amp_mix_perc • guescini
…
fluor
Raw fluorescence values.

    Source

    doi:10.1186/1471-2105-9-326

doi:10.1186/1471-2105-9-326

    Examples

amp_mix_perc
#> # A tibble: 21,000 × 12
#>    plate well  dye   target sample_type run   replicate amp_mix_perc   copies
#>    <fct> <fct> <fct> <fct>  <fct>       <fct> <fct>            <dbl>    <int>
#>  1 NA    NA    SYBR  MT-ND1 std         1     1                    1 31400000
#>  2 NA    NA    SYBR  MT-ND1 std         1     1                    1 31400000
#>  3 NA    NA    SYBR  MT-ND1 std         1     1                    1 31400000
#>  4 NA    NA    SYBR  MT-ND1 std         1     1                    1 31400000
#>  5 NA    NA    SYBR  MT-ND1 std         1     1                    1 31400000
#>  6 NA    NA    SYBR  MT-ND1 std         1     1                    1 31400000
#>  7 NA    NA    SYBR  MT-ND1 std         1     1                    1 31400000
#>  8 NA    NA    SYBR  MT-ND1 std         1     1                    1 31400000
#>  9 NA    NA    SYBR  MT-ND1 std         1     1                    1 31400000
#> 10 NA    NA    SYBR  MT-ND1 std         1     1                    1 31400000
#> # ℹ 20,990 more rows
#> # ℹ 3 more variables: dilution <int>, cycle <int>, fluor <dbl>

amp_mix_perc
#> # A tibble: 21,000 × 12
#>    plate well  dye   target sample_type run   replicate amp_mix_perc   copies
#>    <fct> <fct> <fct> <fct>  <fct>       <fct> <fct>            <dbl>    <int>
#>  1 NA    NA    SYBR  MT-ND1 std         1     1                    1 31400000
#>  2 NA    NA    SYBR  MT-ND1 std         1     1                    1 31400000
#>  3 NA    NA    SYBR  MT-ND1 std         1     1                    1 31400000
#>  4 NA    NA    SYBR  MT-ND1 std         1     1                    1 31400000
#>  5 NA    NA    SYBR  MT-ND1 std         1     1                    1 31400000
#>  6 NA    NA    SYBR  MT-ND1 std         1     1                    1 31400000
#>  7 NA    NA    SYBR  MT-ND1 std         1     1                    1 31400000
#>  8 NA    NA    SYBR  MT-ND1 std         1     1                    1 31400000
#>  9 NA    NA    SYBR  MT-ND1 std         1     1                    1 31400000
#> 10 NA    NA    SYBR  MT-ND1 std         1     1                    1 31400000
#> # ℹ 20,990 more rows
#> # ℹ 3 more variables: dilution <int>, cycle <int>, fluor <dbl>
…
