IgG inhibition — IgG_inhibition • guescini
…
cycle
PCR cycle.

fluor
Raw fluorescence values.

    Source

    doi:10.1186/1471-2105-9-326

    Examples

IgG_inhibition
#> # A tibble: 400 × 10
#>    plate well  dye   target sample_type replicate copies IgG_conc cycle    fluor
#>    <fct> <fct> <fct> <fct>  <fct>           <int>  <int>    <dbl> <int>    <dbl>
#>  1 NA    NA    SYBR  ND1/N… std                 1 4.17e7        0     1 -6.28e-2
#>  2 NA    NA    SYBR  ND1/N… std                 1 4.17e7        0     2  3.24e-3
#>  3 NA    NA    SYBR  ND1/N… std                 1 4.17e7        0     3 -7.34e-5
#>  4 NA    NA    SYBR  ND1/N… std                 1 4.17e7        0     4 -3.87e-3
#>  5 NA    NA    SYBR  ND1/N… std                 1 4.17e7        0     5  2.61e-4
#>  6 NA    NA    SYBR  ND1/N… std                 1 4.17e7        0     6  4.45e-4
#>  7 NA    NA    SYBR  ND1/N… std                 1 4.17e7        0     7  3.84e-3
#>  8 NA    NA    SYBR  ND1/N… std                 1 4.17e7        0     8  1.43e-2
#>  9 NA    NA    SYBR  ND1/N… std                 1 4.17e7        0     9  1.84e-2
#> 10 NA    NA    SYBR  ND1/N… std                 1 4.17e7        0    10  7.47e-2
#> # ℹ 390 more rows
…
